%YAML 1.1
%TAG !u! tag:unity3d.com,2011:
--- !u!74 &7400000
AnimationClip:
  m_ObjectHideFlags: 0
  m_PrefabParentObject: {fileID: 0}
  m_PrefabInternal: {fileID: 0}
  m_Name: hgn_
  serializedVersion: 6
  m_Legacy: 0
  m_Compressed: 0
  m_UseHighQualityCurve: 1
  m_RotationCurves: []
  m_CompressedRotationCurves: []
  m_PositionCurves: []
  m_ScaleCurves: []
  m_FloatCurves:
  - curve:
      serializedVersion: 2
      m_Curve:
      - time: 0
        value: 1
        inSlope: Infinity
        outSlope: Infinity
        tangentMode: 31
      - time: 1
        value: 1
        inSlope: Infinity
        outSlope: Infinity
        tangentMode: 31
      m_PreInfinity: 2
      m_PostInfinity: 2
    attribute: m_Enabled
    path: 
    classID: 114
    script: {fileID: 11500000, guid: 917700dd1b3e6ca45966990fc4d5dbf2, type: 3}
  m_PPtrCurves:
  - curve:
    - time: 0
      value: {fileID: 21300000, guid: d366c1199fe4b2a4b9520afeaca62845, type: 3}
    - time: .0833333358
      value: {fileID: 21300002, guid: d366c1199fe4b2a4b9520afeaca62845, type: 3}
    - time: .166666672
      value: {fileID: 21300004, guid: d366c1199fe4b2a4b9520afeaca62845, type: 3}
    - time: .25
      value: {fileID: 21300006, guid: d366c1199fe4b2a4b9520afeaca62845, type: 3}
    - time: .333333343
      value: {fileID: 21300008, guid: d366c1199fe4b2a4b9520afeaca62845, type: 3}
    - time: .416666657
      value: {fileID: 21300010, guid: d366c1199fe4b2a4b9520afeaca62845, type: 3}
    - time: .5
      value: {fileID: 21300012, guid: d366c1199fe4b2a4b9520afeaca62845, type: 3}
    - time: .583333313
      value: {fileID: 21300014, guid: d366c1199fe4b2a4b9520afeaca62845, type: 3}
    - time: .666666687
      value: {fileID: 21300016, guid: d366c1199fe4b2a4b9520afeaca62845, type: 3}
    - time: .75
      value: {fileID: 21300018, guid: d366c1199fe4b2a4b9520afeaca62845, type: 3}
    - time: .833333313
      value: {fileID: 21300020, guid: d366c1199fe4b2a4b9520afeaca62845, type: 3}
    - time: .916666687
      value: {fileID: 21300022, guid: d366c1199fe4b2a4b9520afeaca62845, type: 3}
    attribute: m_Sprite
    path: 
    classID: 212
    script: {fileID: 0}
  m_SampleRate: 12
  m_WrapMode: 0
  m_Bounds:
    m_Center: {x: 0, y: 0, z: 0}
    m_Extent: {x: 0, y: 0, z: 0}
  m_ClipBindingConstant:
    genericBindings:
    - path: 0
      attribute: 3305885265
      script: {fileID: 11500000, guid: 917700dd1b3e6ca45966990fc4d5dbf2, type: 3}
      classID: 114
      customType: 24
      isPPtrCurve: 0
    - path: 0
      attribute: 0
      script: {fileID: 0}
      classID: 212
      customType: 23
      isPPtrCurve: 1
    pptrCurveMapping:
    - {fileID: 21300000, guid: d366c1199fe4b2a4b9520afeaca62845, type: 3}
    - {fileID: 21300002, guid: d366c1199fe4b2a4b9520afeaca62845, type: 3}
    - {fileID: 21300004, guid: d366c1199fe4b2a4b9520afeaca62845, type: 3}
    - {fileID: 21300006, guid: d366c1199fe4b2a4b9520afeaca62845, type: 3}
    - {fileID: 21300008, guid: d366c1199fe4b2a4b9520afeaca62845, type: 3}
    - {fileID: 21300010, guid: d366c1199fe4b2a4b9520afeaca62845, type: 3}
    - {fileID: 21300012, guid: d366c1199fe4b2a4b9520afeaca62845, type: 3}
    - {fileID: 21300014, guid: d366c1199fe4b2a4b9520afeaca62845, type: 3}
    - {fileID: 21300016, guid: d366c1199fe4b2a4b9520afeaca62845, type: 3}
    - {fileID: 21300018, guid: d366c1199fe4b2a4b9520afeaca62845, type: 3}
    - {fileID: 21300020, guid: d366c1199fe4b2a4b9520afeaca62845, type: 3}
    - {fileID: 21300022, guid: d366c1199fe4b2a4b9520afeaca62845, type: 3}
  m_AnimationClipSettings:
    serializedVersion: 2
    m_StartTime: 0
    m_StopTime: 1
    m_OrientationOffsetY: 0
    m_Level: 0
    m_CycleOffset: 0
    m_LoopTime: 0
    m_LoopBlend: 0
    m_LoopBlendOrientation: 0
    m_LoopBlendPositionY: 0
    m_LoopBlendPositionXZ: 0
    m_KeepOriginalOrientation: 0
    m_KeepOriginalPositionY: 1
    m_KeepOriginalPositionXZ: 0
    m_HeightFromFeet: 0
    m_Mirror: 0
  m_EditorCurves:
  - curve:
      serializedVersion: 2
      m_Curve:
      - time: 0
        value: 1
        inSlope: Infinity
        outSlope: Infinity
        tangentMode: 31
      - time: 1
        value: 1
        inSlope: Infinity
        outSlope: Infinity
        tangentMode: 31
      m_PreInfinity: 2
      m_PostInfinity: 2
    attribute: m_Enabled
    path: 
    classID: 114
    script: {fileID: 11500000, guid: 917700dd1b3e6ca45966990fc4d5dbf2, type: 3}
  m_EulerEditorCurves: []
  m_HasGenericRootTransform: 0
  m_HasMotionFloatCurves: 0
  m_GenerateMotionCurves: 0
  m_Events:
  - time: 1
    functionName: OnAnimationFinish
    data: 
    objectReferenceParameter: {fileID: 0}
    floatParameter: 0
    intParameter: 0
    messageOptions: 0
